<?xml version="1.0" encoding="UTF-8" standalone="no"?>
<svg
   xmlns:dc="http://purl.org/dc/elements/1.1/"
   xmlns:cc="http://creativecommons.org/ns#"
   xmlns:rdf="http://www.w3.org/1999/02/22-rdf-syntax-ns#"
   xmlns:svg="http://www.w3.org/2000/svg"
   xmlns="http://www.w3.org/2000/svg"
   xmlns:xlink="http://www.w3.org/1999/xlink"
   xmlns:sodipodi="http://sodipodi.sourceforge.net/DTD/sodipodi-0.dtd"
   xmlns:inkscape="http://www.inkscape.org/namespaces/inkscape"
   width="240"
   height="48"
   viewBox="0 0 63.500002 12.700007"
   version="1.1"
   id="svg8"
   inkscape:version="1.0.2 (e86c870879, 2021-01-15)"
   sodipodi:docname="tango24.svg"
   inkscape:export-filename="/home/nick/projects/glok/src/main/resources/uk/co/nickthecoder/glok/demo/tango24.png"
   inkscape:export-xdpi="96"
   inkscape:export-ydpi="96">
  <defs
     id="defs2" />
  <sodipodi:namedview
     id="base"
     pagecolor="#ffffff"
     bordercolor="#666666"
     borderopacity="1.0"
     inkscape:pageopacity="0.0"
     inkscape:pageshadow="2"
     inkscape:zoom="7.9195959"
     inkscape:cx="157.33435"
     inkscape:cy="40.866868"
     inkscape:document-units="px"
     inkscape:current-layer="layer1"
     inkscape:document-rotation="0"
     showgrid="true"
     units="px"
     inkscape:window-width="1920"
     inkscape:window-height="1007"
     inkscape:window-x="0"
     inkscape:window-y="0"
     inkscape:window-maximized="1">
    <inkscape:grid
       type="xygrid"
       id="grid833"
       originx="-0.26458333"
       spacingx="6.35"
       spacingy="6.35"
       originy="-0.26458333" />
    <inkscape:grid
       type="xygrid"
       id="grid835"
       originx="0.26458333"
       originy="0.26458333"
       spacingx="6.35"
       spacingy="6.35" />
  </sodipodi:namedview>
  <metadata
     id="metadata5">
    <rdf:RDF>
      <cc:Work
         rdf:about="">
        <dc:format>image/svg+xml</dc:format>
        <dc:type
           rdf:resource="http://purl.org/dc/dcmitype/StillImage" />
        <dc:title />
      </cc:Work>
    </rdf:RDF>
  </metadata>
  <g
     inkscape:label="Layer 1"
     inkscape:groupmode="layer"
     id="layer1">
    <image
       sodipodi:absref="/home/nick/projects/glok/graphics/tango/24/document-new.png"
       xlink:href="document-new.png"
       width="5.644444"
       height="5.644444"
       preserveAspectRatio="none"
       id="image865"
       x="0.26458332"
       y="0.26458332" />
    <image
       sodipodi:absref="/home/nick/projects/glok/graphics/tango/24/document-open.png"
       xlink:href="document-open.png"
       width="4.5155559"
       height="4.5155559"
       preserveAspectRatio="none"
       id="image879"
       x="7.4042387"
       y="0.94084561" />
    <image
       sodipodi:absref="/home/nick/projects/glok/graphics/tango/24/document-properties.png"
       xlink:href="document-properties.png"
       width="5.8208332"
       height="5.8208332"
       preserveAspectRatio="none"
       id="image893"
       x="12.964583"
       y="0.26458332" />
    <image
       sodipodi:absref="/home/nick/projects/glok/graphics/tango/24/document-save-as.png"
       xlink:href="document-save-as.png"
       width="5.8208332"
       height="5.8208332"
       preserveAspectRatio="none"
       id="image907"
       x="19.314583"
       y="0.26458332" />
    <image
       sodipodi:absref="/home/nick/projects/glok/graphics/tango/24/document-save.png"
       xlink:href="document-save.png"
       width="5.8208332"
       height="5.8208332"
       preserveAspectRatio="none"
       id="image921"
       x="25.664583"
       y="0.26458332" />
    <image
       sodipodi:absref="/home/nick/projects/glok/graphics/tango/24/edit-clear.png"
       xlink:href="edit-clear.png"
       width="4.2333331"
       height="4.2333331"
       preserveAspectRatio="none"
       id="image953"
       x="1.0583335"
       y="7.4083333" />
    <image
       sodipodi:absref="/home/nick/projects/glok/graphics/tango/24/edit-copy.png"
       xlink:href="edit-copy.png"
       width="5.644444"
       height="5.644444"
       preserveAspectRatio="none"
       id="image967"
       x="6.5137773"
       y="6.5704846" />
    <image
       sodipodi:absref="/home/nick/projects/glok/graphics/tango/24/edit-cut.png"
       xlink:href="edit-cut.png"
       width="5.644444"
       height="5.644444"
       preserveAspectRatio="none"
       id="image981"
       x="12.964583"
       y="6.6145835" />
    <image
       sodipodi:absref="/home/nick/projects/glok/graphics/tango/24/edit-delete.png"
       xlink:href="edit-delete.png"
       width="5.6443563"
       height="5.6443563"
       preserveAspectRatio="none"
       id="image995"
       x="19.314583"
       y="6.6145835" />
    <image
       sodipodi:absref="/home/nick/projects/glok/graphics/tango/24/edit-find-replace.png"
       xlink:href="edit-find-replace.png"
       width="5.644444"
       height="5.644444"
       preserveAspectRatio="none"
       id="image1009"
       x="25.664583"
       y="6.7909727" />
    <image
       sodipodi:absref="/home/nick/projects/glok/graphics/tango/24/edit-find.png"
       xlink:href="edit-find.png"
       width="5.644444"
       height="5.644444"
       preserveAspectRatio="none"
       id="image1023"
       x="32.014584"
       y="6.6145835" />
    <image
       sodipodi:absref="/home/nick/projects/glok/graphics/tango/24/edit-paste.png"
       xlink:href="edit-paste.png"
       width="5.644444"
       height="5.644444"
       preserveAspectRatio="none"
       id="image1037"
       x="38.364582"
       y="6.6145835" />
    <image
       sodipodi:absref="/home/nick/projects/glok/graphics/tango/24/edit-redo.png"
       xlink:href="edit-redo.png"
       width="4.5155559"
       height="4.5155559"
       preserveAspectRatio="none"
       id="image1051"
       x="45.243752"
       y="7.1437502" />
    <image
       sodipodi:absref="/home/nick/projects/glok/graphics/tango/24/edit-select-all.png"
       xlink:href="edit-select-all.png"
       width="4.2333331"
       height="4.2333331"
       preserveAspectRatio="none"
       id="image1065"
       x="51.858334"
       y="7.6729164" />
    <image
       sodipodi:absref="/home/nick/projects/glok/graphics/tango/24/edit-undo.png"
       xlink:href="edit-undo.png"
       width="4.5155559"
       height="4.5155559"
       preserveAspectRatio="none"
       id="image1079"
       x="57.943748"
       y="7.4083328" />
  </g>
</svg>
